{
  "productName": "POS-System",
  "files": [
        "**/*",
        "!**/*.ts",
        "!*.code-workspace",
        "!LICENSE.md",
        "!package.json",
        "!package-lock.json",
        "!src/",
        "!release/",
        "!e2e/",
        "!hooks/",
        "!angular.json",
        "!_config.yml",
        "!karma.conf.js",
        "!tsconfig.json",
        "!tslint.json"
    ]
  
}
